lab5_classification-assign
…
The mean, 5th quantile, and 95th quantile of reflectance for each band and land cover class was then calculated to summarize and analyze the spectral characteristics of the different land cover types.

# Calculate spectral signatures for each land cover class and band 
spectral_sign <- poly_set_vals_long %>% 
  group_by(lc_class, band) %>%  
  summarize(r_mean = mean(reflectance, na.rm = TRUE),
            r_q05 = quantile(reflectance, 0.05, na.rm = TRUE),
            r_q95 = quantile(reflectance, 0.95, na.rm = TRUE))  
# Display the spectral signatures 
spectral_sign 

# A tibble: 42 × 5
# Groups:   lc_class [7]
   lc_class          band  r_mean    r_q05  r_q95
   <fct>             <chr>  <dbl>    <dbl>  <dbl>
 1 Broadleaf Forest  blue  0.0117 0.00279  0.0498
 2 Broadleaf Forest  green 0.0169 0.00718  0.0805
 3 Broadleaf Forest  nir   0.0228 0        0.225 
 4 Broadleaf Forest  red   0.0109 0        0.0883
 5 Broadleaf Forest  swir1 0.0239 0        0.181 
 6 Broadleaf Forest  swir2 0.0177 0.000282 0.130 
 7 Coniferous Forest blue  0.0276 0.0114   0.0559
 8 Coniferous Forest green 0.0486 0.0273   0.0821
 9 Coniferous Forest nir   0.242  0.141    0.387 
10 Coniferous Forest red   0.0421 0.0147   0.0893
# ℹ 32 more rows
…
